module hermes

require (
	github.com/gorilla/websocket v1.5.1
	github.com/labstack/echo/v4 v4.11.4
	github.com/lib/pq v1.10.9
	github.com/streadway/amqp v1.0.0
	gorm.io/driver/postgres v1.5.6
	gorm.io/gorm v1.25.7
)

require (
	github.com/golang-jwt/jwt v3.2.2+incompatible // indirect
	github.com/labstack/gommon v0.4.2 // indirect
	github.com/valyala/fasttemplate v1.2.2 // indirect
	golang.org/x/crypto v0.19.0 // indirect
	golang.org/x/text v0.14.0 // indirect
	golang.org/x/time v0.5.0 // indirect
)

require (
	github.com/jackc/pgpassfile v1.0.0 // indirect
	github.com/jackc/pgservicefile v0.0.0-20221227161230-091c0ba34f0a // indirect
	github.com/jackc/pgx/v5 v5.4.3 // indirect
	github.com/jinzhu/inflection v1.0.0 // indirect
	github.com/jinzhu/now v1.1.5 // indirect
	github.com/mattn/go-colorable v0.1.13 // indirect
	github.com/mattn/go-isatty v0.0.20 // indirect
	github.com/valyala/bytebufferpool v1.0.0 // indirect
	golang.org/x/net v0.19.0 // indirect
	golang.org/x/sys v0.17.0 // indirect
)

go 1.21
